{
    "itemName": "Redbull Sugar Free - Red Bull - 4x250ml",
    "id": "2",
    "categories" :  ["Not advised for specific people",
                     "Green Dot",
                     "Not advised for children and pregnant women",
                      "Pasteurized product"
                ],
    "labels": [],
    "imageLink": "https://world.openfoodfacts.org/images/products/900/249/020/0381/front_en.8.400.jpg",
    "nutritionFacts": "https://world.openfoodfacts.org/images/products/900/249/020/0381/ingredients_en.11.400.jpg",
    "price": "33.98",
    "barCode": "9002490200381 ",
    "nutriScore": "B",
    "novaScore": "4",
    "servingSize":" 250ml",
    "calories": "7.5",
    "brands": [
        "Red Bull"
    ]
}